// Jest Snapshot v1, https://goo.gl/fbAQLP

exports[`Favorites Sync Actions + Reducer / should addFavorite with testGem then testGem2 1`] = `
Object {
  "gems": Object {},
}
`;

exports[`Favorites Sync Actions + Reducer / should addFavorite with testGem then testGem2 2`] = `
Object {
  "gems": Object {
    "080183a074f6bfe1773fbf72f8fd88972ca33a7f0946935dd7fff3def81eb403": Object {
      "date_saved": "2020-05-15T04:00:00.000Z",
      "downloads": 2046,
      "info": "The Fpb gem provides support for Flow Based Programming for Ruby.
Flow Based programming is described at http://www.jpaulmorrison.com/fbp
",
      "name": "testGem",
      "project_uri": "https://rubygems.org/gems/fbp",
      "sha": "080183a074f6bfe1773fbf72f8fd88972ca33a7f0946935dd7fff3def81eb403",
      "version": "0.1.0",
    },
  },
}
`;

exports[`Favorites Sync Actions + Reducer / should addFavorite with testGem then testGem2 3`] = `
Object {
  "gems": Object {
    "080183a074f6bfe1773fbf72f8fd88972ca33a7f0946935dd7fff3def81eb403": Object {
      "date_saved": "2020-05-15T04:00:00.000Z",
      "downloads": 2046,
      "info": "The Fpb gem provides support for Flow Based Programming for Ruby.
Flow Based programming is described at http://www.jpaulmorrison.com/fbp
",
      "name": "testGem",
      "project_uri": "https://rubygems.org/gems/fbp",
      "sha": "080183a074f6bfe1773fbf72f8fd88972ca33a7f0946935dd7fff3def81eb403",
      "version": "0.1.0",
    },
    "abc123": Object {
      "date_saved": "2020-05-15T04:00:00.000Z",
      "downloads": 9001,
      "info": "simple",
      "name": "testGem2",
      "project_uri": "https://rubygems.org/gems/test-gem",
      "sha": "abc123",
      "version": "0.1.0",
    },
  },
}
`;

exports[`Favorites Sync Actions + Reducer / should removeFavorite with no gems removed, then testGem removed 1`] = `
Object {
  "gems": Object {
    "080183a074f6bfe1773fbf72f8fd88972ca33a7f0946935dd7fff3def81eb403": Object {
      "downloads": 2046,
      "info": "The Fpb gem provides support for Flow Based Programming for Ruby.
Flow Based programming is described at http://www.jpaulmorrison.com/fbp
",
      "name": "testGem",
      "project_uri": "https://rubygems.org/gems/fbp",
      "sha": "080183a074f6bfe1773fbf72f8fd88972ca33a7f0946935dd7fff3def81eb403",
      "version": "0.1.0",
    },
    "abc123": Object {
      "downloads": 9001,
      "info": "simple",
      "name": "testGem2",
      "project_uri": "https://rubygems.org/gems/test-gem",
      "sha": "abc123",
      "version": "0.1.0",
    },
  },
}
`;

exports[`Favorites Sync Actions + Reducer / should removeFavorite with no gems removed, then testGem removed 2`] = `
Object {
  "gems": Object {
    "abc123": Object {
      "downloads": 9001,
      "info": "simple",
      "name": "testGem2",
      "project_uri": "https://rubygems.org/gems/test-gem",
      "sha": "abc123",
      "version": "0.1.0",
    },
  },
}
`;
